{
    "foreground": "lvl2.png",
    "start_position": {
        "x": 150,
        "y": 250
    },
    "enemies": [
        {
            "x": 300,
            "y": 200,
            "type": "ne_chelovek"
        },
        {
            "x": 350,
            "y": 200,
            "type": "ne_chelovek"
        }
    ],
    "items": [
        {
            "x": 300,
            "y": 450,
            "type": "shotgun"
        },
        {
            "x": 300,
            "y": 500,
            "type": "health_pack"
        }
    ]
}